Capítulo 2 dplyr (60 minutos) | Um breve tutorial sobre dplyr com ggplot2
…
2.1 Operador Pipe

sqrt(log(44))

## [1] 1.945299

44 %>% log %>% sqrt

## [1] 1.945299

2.2 select() para linhas

select(dados, manufacturer, model, year)

## # A tibble: 234 × 3
##    manufacturer model       year
##    <chr>        <chr>      <int>
##  1 audi         a4          1999
##  2 audi         a4          1999
##  3 audi         a4          2008
##  4 audi         a4          2008
##  5 audi         a4          1999
##  6 audi         a4          1999
##  7 audi         a4          2008
##  8 audi         a4 quattro  1999
##  9 audi         a4 quattro  1999
## 10 audi         a4 quattro  2008
## # … with 224 more rows

select(dados, starts_with("m"))

## # A tibble: 234 × 2
##    manufacturer model     
##    <chr>        <chr>     
##  1 audi         a4        
##  2 audi         a4        
##  3 audi         a4        
##  4 audi         a4        
##  5 audi         a4        
##  6 audi         a4        
##  7 audi         a4        
##  8 audi         a4 quattro
##  9 audi         a4 quattro
## 10 audi         a4 quattro
## # … with 224 more rows

select(dados, contains("r"))

## # A tibble: 234 × 4
##    manufacturer  year trans      drv  
##    <chr>        <int> <chr>      <chr>
##  1 audi          1999 auto(l5)   f    
##  2 audi          1999 manual(m5) f    
##  3 audi          2008 manual(m6) f    
##  4 audi          2008 auto(av)   f    
##  5 audi          1999 auto(l5)   f    
##  6 audi          1999 manual(m5) f    
##  7 audi          2008 auto(av)   f    
##  8 audi          1999 manual(m5) 4    
##  9 audi          1999 auto(l5)   4    
## 10 audi          2008 manual(m6) 4    
## # … with 224 more rows

select(dados, ends_with("y"))

## # A tibble: 234 × 2
##      cty   hwy
##    <int> <int>
##  1    18    29
##  2    21    29
##  3    20    31
##  4    21    30
##  5    16    26
##  6    18    26
##  7    18    27
##  8    18    26
##  9    16    25
## 10    20    28
## # … with 224 more rows

select(dados, matches("[abc]"))

## # A tibble: 234 × 6
##    manufacturer  year   cyl trans        cty class  
##    <chr>        <int> <int> <chr>      <int> <chr>  
##  1 audi          1999     4 auto(l5)      18 compact
##  2 audi          1999     4 manual(m5)    21 compact
##  3 audi          2008     4 manual(m6)    20 compact
##  4 audi          2008     4 auto(av)      21 compact
##  5 audi          1999     6 auto(l5)      16 compact
##  6 audi          1999     6 manual(m5)    18 compact
##  7 audi          2008     6 auto(av)      18 compact
##  8 audi          1999     4 manual(m5)    18 compact
##  9 audi          1999     4 auto(l5)      16 compact
## 10 audi          2008     4 manual(m6)    20 compact
## # … with 224 more rows

select(dados, starts_with("m"), starts_with("c")) 

## # A tibble: 234 × 5
##    manufacturer model        cyl   cty class  
##    <chr>        <chr>      <int> <int> <chr>  
##  1 audi         a4             4    18 compact
##  2 audi         a4             4    21 compact
##  3 audi         a4             4    20 compact
##  4 audi         a4             4    21 compact
##  5 audi         a4             6    16 compact
##  6 audi         a4             6    18 compact
##  7 audi         a4             6    18 compact
##  8 audi         a4 quattro     4    18 compact
##  9 audi         a4 quattro     4    16 compact
## 10 audi         a4 quattro     4    20 compact
## # … with 224 more rows

select(dados, ends_with("l"), ends_with("s")) 

## # A tibble: 234 × 6
##    model      displ   cyl fl    trans      class  
##    <chr>      <dbl> <int> <chr> <chr>      <chr>  
##  1 a4           1.8     4 p     auto(l5)   compact
##  2 a4           1.8     4 p     manual(m5) compact
##  3 a4           2       4 p     manual(m6) compact
##  4 a4           2       4 p     auto(av)   compact
##  5 a4           2.8     6 p     auto(l5)   compact
##  6 a4           2.8     6 p     manual(m5) compact
##  7 a4           3.1     6 p     auto(av)   compact
##  8 a4 quattro   1.8     4 p     manual(m5) compact
##  9 a4 quattro   1.8     4 p     auto(l5)   compact
## 10 a4 quattro   2       4 p     manual(m6) compact
## # … with 224 more rows

select(dados, 1:3)      

## # A tibble: 234 × 3
##    manufacturer model      displ
##    <chr>        <chr>      <dbl>
##  1 audi         a4           1.8
##  2 audi         a4           1.8
##  3 audi         a4           2  
##  4 audi         a4           2  
##  5 audi         a4           2.8
##  6 audi         a4           2.8
##  7 audi         a4           3.1
##  8 audi         a4 quattro   1.8
##  9 audi         a4 quattro   1.8
## 10 audi         a4 quattro   2  
## # … with 224 more rows

select(dados, c(2,5,7)) 

## # A tibble: 234 × 3
##    model        cyl drv  
##    <chr>      <int> <chr>
##  1 a4             4 f    
##  2 a4             4 f    
##  3 a4             4 f    
##  4 a4             4 f    
##  5 a4             6 f    
##  6 a4             6 f    
##  7 a4             6 f    
##  8 a4 quattro     4 4    
##  9 a4 quattro     4 4    
## 10 a4 quattro     4 4    
## # … with 224 more rows

select(dados, manufacturer:cyl) 

## # A tibble: 234 × 5
##    manufacturer model      displ  year   cyl
##    <chr>        <chr>      <dbl> <int> <int>
##  1 audi         a4           1.8  1999     4
##  2 audi         a4           1.8  1999     4
##  3 audi         a4           2    2008     4
##  4 audi         a4           2    2008     4
##  5 audi         a4           2.8  1999     6
##  6 audi         a4           2.8  1999     6
##  7 audi         a4           3.1  2008     6
##  8 audi         a4 quattro   1.8  1999     4
##  9 audi         a4 quattro   1.8  1999     4
## 10 audi         a4 quattro   2    2008     4
## # … with 224 more rows

select(dados,-(manufacturer:cyl)) 

## # A tibble: 234 × 6
##    trans      drv     cty   hwy fl    class  
##    <chr>      <chr> <int> <int> <chr> <chr>  
##  1 auto(l5)   f        18    29 p     compact
##  2 manual(m5) f        21    29 p     compact
##  3 manual(m6) f        20    31 p     compact
##  4 auto(av)   f        21    30 p     compact
##  5 auto(l5)   f        16    26 p     compact
##  6 manual(m5) f        18    26 p     compact
##  7 auto(av)   f        18    27 p     compact
##  8 manual(m5) 4        18    26 p     compact
##  9 auto(l5)   4        16    25 p     compact
## 10 manual(m6) 4        20    28 p     compact
## # … with 224 more rows

2.3 rename()

dados1 <- rename(dados, 
              mnfc = manufacturer,
              mod = model)
dados1

## # A tibble: 234 × 11
##    mnfc  mod        displ  year   cyl trans      drv     cty   hwy fl    class  
##    <chr> <chr>      <dbl> <int> <int> <chr>      <chr> <int> <int> <chr> <chr>  
##  1 audi  a4           1.8  1999     4 auto(l5)   f        18    29 p     compact
##  2 audi  a4           1.8  1999     4 manual(m5) f        21    29 p     compact
##  3 audi  a4           2    2008     4 manual(m6) f        20    31 p     compact
##  4 audi  a4           2    2008     4 auto(av)   f        21    30 p     compact
##  5 audi  a4           2.8  1999     6 auto(l5)   f        16    26 p     compact
##  6 audi  a4           2.8  1999     6 manual(m5) f        18    26 p     compact
##  7 audi  a4           3.1  2008     6 auto(av)   f        18    27 p     compact
##  8 audi  a4 quattro   1.8  1999     4 manual(m5) 4        18    26 p     compact
##  9 audi  a4 quattro   1.8  1999     4 auto(l5)   4        16    25 p     compact
## 10 audi  a4 quattro   2    2008     4 manual(m6) 4        20    28 p     compact
## # … with 224 more rows

select(dados,
       mnfc = manufacturer,
       mod = model)

## # A tibble: 234 × 2
##    mnfc  mod       
##    <chr> <chr>     
##  1 audi  a4        
##  2 audi  a4        
##  3 audi  a4        
##  4 audi  a4        
##  5 audi  a4        
##  6 audi  a4        
##  7 audi  a4        
##  8 audi  a4 quattro
##  9 audi  a4 quattro
## 10 audi  a4 quattro
## # … with 224 more rows

select(dados,
       mnfc = manufacturer,
       mod = model,
       everything())

## # A tibble: 234 × 11
##    mnfc  mod        displ  year   cyl trans      drv     cty   hwy fl    class  
##    <chr> <chr>      <dbl> <int> <int> <chr>      <chr> <int> <int> <chr> <chr>  
##  1 audi  a4           1.8  1999     4 auto(l5)   f        18    29 p     compact
##  2 audi  a4           1.8  1999     4 manual(m5) f        21    29 p     compact
##  3 audi  a4           2    2008     4 manual(m6) f        20    31 p     compact
##  4 audi  a4           2    2008     4 auto(av)   f        21    30 p     compact
##  5 audi  a4           2.8  1999     6 auto(l5)   f        16    26 p     compact
##  6 audi  a4           2.8  1999     6 manual(m5) f        18    26 p     compact
##  7 audi  a4           3.1  2008     6 auto(av)   f        18    27 p     compact
##  8 audi  a4 quattro   1.8  1999     4 manual(m5) 4        18    26 p     compact
##  9 audi  a4 quattro   1.8  1999     4 auto(l5)   4        16    25 p     compact
## 10 audi  a4 quattro   2    2008     4 manual(m6) 4        20    28 p     compact
## # … with 224 more rows

2.4 mutate() para colunas

dados <- mutate(dados,
             `avg miles per gallon` = (cty + hwy) / 2)
dados

## # A tibble: 234 × 12
##    manufac…¹ model displ  year   cyl trans drv     cty   hwy fl    class avg m…²
##    <chr>     <chr> <dbl> <int> <int> <chr> <chr> <int> <int> <chr> <chr>   <dbl>
##  1 audi      a4      1.8  1999     4 auto… f        18    29 p     comp…    23.5
##  2 audi      a4      1.8  1999     4 manu… f        21    29 p     comp…    25  
##  3 audi      a4      2    2008     4 manu… f        20    31 p     comp…    25.5
##  4 audi      a4      2    2008     4 auto… f        21    30 p     comp…    25.5
##  5 audi      a4      2.8  1999     6 auto… f        16    26 p     comp…    21  
##  6 audi      a4      2.8  1999     6 manu… f        18    26 p     comp…    22  
##  7 audi      a4      3.1  2008     6 auto… f        18    27 p     comp…    22.5
##  8 audi      a4 q…   1.8  1999     4 manu… 4        18    26 p     comp…    22  
##  9 audi      a4 q…   1.8  1999     4 auto… 4        16    25 p     comp…    20.5
## 10 audi      a4 q…   2    2008     4 manu… 4        20    28 p     comp…    24  
## # … with 224 more rows, and abbreviated variable names ¹​manufacturer,
## #   ²​`avg miles per gallon`

dados <- mutate(dados,
             car = paste(manufacturer, model, sep = " "),
             `cyl / trans` = paste(cyl, " cylinders", " / ", trans, " transmission", sep = ""))
dados

## # A tibble: 234 × 14
##    manufac…¹ model displ  year   cyl trans drv     cty   hwy fl    class avg m…²
##    <chr>     <chr> <dbl> <int> <int> <chr> <chr> <int> <int> <chr> <chr>   <dbl>
##  1 audi      a4      1.8  1999     4 auto… f        18    29 p     comp…    23.5
##  2 audi      a4      1.8  1999     4 manu… f        21    29 p     comp…    25  
##  3 audi      a4      2    2008     4 manu… f        20    31 p     comp…    25.5
##  4 audi      a4      2    2008     4 auto… f        21    30 p     comp…    25.5
##  5 audi      a4      2.8  1999     6 auto… f        16    26 p     comp…    21  
##  6 audi      a4      2.8  1999     6 manu… f        18    26 p     comp…    22  
##  7 audi      a4      3.1  2008     6 auto… f        18    27 p     comp…    22.5
##  8 audi      a4 q…   1.8  1999     4 manu… 4        18    26 p     comp…    22  
##  9 audi      a4 q…   1.8  1999     4 auto… 4        16    25 p     comp…    20.5
## 10 audi      a4 q…   2    2008     4 manu… 4        20    28 p     comp…    24  
## # … with 224 more rows, 2 more variables: car <chr>, `cyl / trans` <chr>, and
## #   abbreviated variable names ¹​manufacturer, ²​`avg miles per gallon`

2.5 transmute()

transmute(dados,
          `avg miles per gallon` = (cty + hwy) / 2)

## # A tibble: 234 × 1
##    `avg miles per gallon`
##                     <dbl>
##  1                   23.5
##  2                   25  
##  3                   25.5
##  4                   25.5
##  5                   21  
##  6                   22  
##  7                   22.5
##  8                   22  
##  9                   20.5
## 10                   24  
## # … with 224 more rows

transmute(dados,
          car = paste(manufacturer, model, sep = " "),
          `cyl / trans` = paste(cyl, " cylinders", " / ", trans, " transmission", sep = ""))

## # A tibble: 234 × 2
##    car             `cyl / trans`                        
##    <chr>           <chr>                                
##  1 audi a4         4 cylinders / auto(l5) transmission  
##  2 audi a4         4 cylinders / manual(m5) transmission
##  3 audi a4         4 cylinders / manual(m6) transmission
##  4 audi a4         4 cylinders / auto(av) transmission  
##  5 audi a4         6 cylinders / auto(l5) transmission  
##  6 audi a4         6 cylinders / manual(m5) transmission
##  7 audi a4         6 cylinders / auto(av) transmission  
##  8 audi a4 quattro 4 cylinders / manual(m5) transmission
##  9 audi a4 quattro 4 cylinders / auto(l5) transmission  
## 10 audi a4 quattro 4 cylinders / manual(m6) transmission
## # … with 224 more rows
…
filter(dados, manufacturer == "audi" | manufacturer == "dodge")

## # A tibble: 55 × 14
##    manufac…¹ model displ  year   cyl trans drv     cty   hwy fl    class avg m…²
##    <chr>     <chr> <dbl> <int> <int> <chr> <chr> <int> <int> <chr> <chr>   <dbl>
##  1 audi      a4      1.8  1999     4 auto… f        18    29 p     comp…    23.5
##  2 audi      a4      1.8  1999     4 manu… f        21    29 p     comp…    25  
##  3 audi      a4      2    2008     4 manu… f        20    31 p     comp…    25.5
##  4 audi      a4      2    2008     4 auto… f        21    30 p     comp…    25.5
##  5 audi      a4      2.8  1999     6 auto… f        16    26 p     comp…    21  
##  6 audi      a4      2.8  1999     6 manu… f        18    26 p     comp…    22  
##  7 audi      a4      3.1  2008     6 auto… f        18    27 p     comp…    22.5
##  8 audi      a4 q…   1.8  1999     4 manu… 4        18    26 p     comp…    22  
##  9 audi      a4 q…   1.8  1999     4 auto… 4        16    25 p     comp…    20.5
## 10 audi      a4 q…   2    2008     4 manu… 4        20    28 p     comp…    24  
## # … with 45 more rows, 2 more variables: car <chr>, `cyl / trans` <chr>, and
## #   abbreviated variable names ¹​manufacturer, ²​`avg miles per gallon`

filter(dados, manufacturer %in% c("audi", "dodge")) 

## # A tibble: 55 × 14
##    manufac…¹ model displ  year   cyl trans drv     cty   hwy fl    class avg m…²
##    <chr>     <chr> <dbl> <int> <int> <chr> <chr> <int> <int> <chr> <chr>   <dbl>
##  1 audi      a4      1.8  1999     4 auto… f        18    29 p     comp…    23.5
##  2 audi      a4      1.8  1999     4 manu… f        21    29 p     comp…    25  
##  3 audi      a4      2    2008     4 manu… f        20    31 p     comp…    25.5
##  4 audi      a4      2    2008     4 auto… f        21    30 p     comp…    25.5
##  5 audi      a4      2.8  1999     6 auto… f        16    26 p     comp…    21  
##  6 audi      a4      2.8  1999     6 manu… f        18    26 p     comp…    22  
##  7 audi      a4      3.1  2008     6 auto… f        18    27 p     comp…    22.5
##  8 audi      a4 q…   1.8  1999     4 manu… 4        18    26 p     comp…    22  
##  9 audi      a4 q…   1.8  1999     4 auto… 4        16    25 p     comp…    20.5
## 10 audi      a4 q…   2    2008     4 manu… 4        20    28 p     comp…    24  
## # … with 45 more rows, 2 more variables: car <chr>, `cyl / trans` <chr>, and
## #   abbreviated variable names ¹​manufacturer, ²​`avg miles per gallon`

filter(dados, hwy >= 30)

## # A tibble: 26 × 14
##    manufac…¹ model displ  year   cyl trans drv     cty   hwy fl    class avg m…²
##    <chr>     <chr> <dbl> <int> <int> <chr> <chr> <int> <int> <chr> <chr>   <dbl>
##  1 audi      a4      2    2008     4 manu… f        20    31 p     comp…    25.5
##  2 audi      a4      2    2008     4 auto… f        21    30 p     comp…    25.5
##  3 chevrolet mali…   2.4  2008     4 auto… f        22    30 r     mids…    26  
##  4 honda     civic   1.6  1999     4 manu… f        28    33 r     subc…    30.5
##  5 honda     civic   1.6  1999     4 auto… f        24    32 r     subc…    28  
##  6 honda     civic   1.6  1999     4 manu… f        25    32 r     subc…    28.5
##  7 honda     civic   1.6  1999     4 auto… f        24    32 r     subc…    28  
##  8 honda     civic   1.8  2008     4 manu… f        26    34 r     subc…    30  
##  9 honda     civic   1.8  2008     4 auto… f        25    36 r     subc…    30.5
## 10 honda     civic   1.8  2008     4 auto… f        24    36 c     subc…    30  
## # … with 16 more rows, 2 more variables: car <chr>, `cyl / trans` <chr>, and
## #   abbreviated variable names ¹​manufacturer, ²​`avg miles per gallon`

filter(dados, year != 1999)

## # A tibble: 117 × 14
##    manufac…¹ model displ  year   cyl trans drv     cty   hwy fl    class avg m…²
##    <chr>     <chr> <dbl> <int> <int> <chr> <chr> <int> <int> <chr> <chr>   <dbl>
##  1 audi      a4      2    2008     4 manu… f        20    31 p     comp…    25.5
##  2 audi      a4      2    2008     4 auto… f        21    30 p     comp…    25.5
##  3 audi      a4      3.1  2008     6 auto… f        18    27 p     comp…    22.5
##  4 audi      a4 q…   2    2008     4 manu… 4        20    28 p     comp…    24  
##  5 audi      a4 q…   2    2008     4 auto… 4        19    27 p     comp…    23  
##  6 audi      a4 q…   3.1  2008     6 auto… 4        17    25 p     comp…    21  
##  7 audi      a4 q…   3.1  2008     6 manu… 4        15    25 p     comp…    20  
##  8 audi      a6 q…   3.1  2008     6 auto… 4        17    25 p     mids…    21  
##  9 audi      a6 q…   4.2  2008     8 auto… 4        16    23 p     mids…    19.5
## 10 chevrolet c150…   5.3  2008     8 auto… r        14    20 r     suv      17  
## # … with 107 more rows, 2 more variables: car <chr>, `cyl / trans` <chr>, and
## #   abbreviated variable names ¹​manufacturer, ²​`avg miles per gallon`

filter(dados, between(cty,15, 22)) 

## # A tibble: 143 × 14
##    manufac…¹ model displ  year   cyl trans drv     cty   hwy fl    class avg m…²
##    <chr>     <chr> <dbl> <int> <int> <chr> <chr> <int> <int> <chr> <chr>   <dbl>
##  1 audi      a4      1.8  1999     4 auto… f        18    29 p     comp…    23.5
##  2 audi      a4      1.8  1999     4 manu… f        21    29 p     comp…    25  
##  3 audi      a4      2    2008     4 manu… f        20    31 p     comp…    25.5
##  4 audi      a4      2    2008     4 auto… f        21    30 p     comp…    25.5
##  5 audi      a4      2.8  1999     6 auto… f        16    26 p     comp…    21  
##  6 audi      a4      2.8  1999     6 manu… f        18    26 p     comp…    22  
##  7 audi      a4      3.1  2008     6 auto… f        18    27 p     comp…    22.5
##  8 audi      a4 q…   1.8  1999     4 manu… 4        18    26 p     comp…    22  
##  9 audi      a4 q…   1.8  1999     4 auto… 4        16    25 p     comp…    20.5
## 10 audi      a4 q…   2    2008     4 manu… 4        20    28 p     comp…    24  
## # … with 133 more rows, 2 more variables: car <chr>, `cyl / trans` <chr>, and
## #   abbreviated variable names ¹​manufacturer, ²​`avg miles per gallon`
…
